[gd_resource type="StyleBoxTexture" load_steps=2 format=2]

[ext_resource path="res://assets/images/left_button_focused.png" type="Texture" id=1]

[resource]
texture = ExtResource( 1 )
region_rect = Rect2( 0, 0, 52, 52 )
